{"componentChunkName":"component---node-modules-pitayan-gatsby-theme-pitayan-src-templates-all-posts-index-tsx","path":"/posts/3","result":{"data":{"allMdx":{"totalCount":12,"pageInfo":{"currentPage":3,"hasNextPage":false,"hasPreviousPage":true,"pageCount":2},"nodes":[]}},"pageContext":{"limit":6,"skip":12,"currentPage":3}},"staticQueryHashes":["176088207"]}