{"componentChunkName":"component---node-modules-pitayan-gatsby-theme-pitayan-src-templates-all-posts-index-tsx","path":"/posts/2","result":{"data":{"allMdx":{"totalCount":8,"pageInfo":{"currentPage":2,"hasNextPage":false,"hasPreviousPage":true,"pageCount":2},"nodes":[{"id":"43f184f9-fab9-5b89-9590-4cacda60831c","timeToRead":1,"fields":{"slug":"/kubernetes-deployments"},"frontmatter":{"title":"Kubernetes deployments","date":"December 5th, 2022","categories":["platform engineering","kubernetes"],"hero":{"normal":{"gatsbyImageData":{"layout":"constrained","placeholder":{"fallback":"data:image/jpeg;base64,/9j/2wBDABALDA4MChAODQ4SERATGCgaGBYWGDEjJR0oOjM9PDkzODdASFxOQERXRTc4UG1RV19iZ2hnPk1xeXBkeFxlZ2P/2wBDARESEhgVGC8aGi9jQjhCY2NjY2NjY2NjY2NjY2NjY2NjY2NjY2NjY2NjY2NjY2NjY2NjY2NjY2NjY2NjY2NjY2P/wgARCAANABQDASIAAhEBAxEB/8QAFwABAQEBAAAAAAAAAAAAAAAABAACBf/EABUBAQEAAAAAAAAAAAAAAAAAAAAB/9oADAMBAAIQAxAAAAHpmSex1uP/xAAaEAACAgMAAAAAAAAAAAAAAAABAgADECEy/9oACAEBAAEFAm2KEUjHN8//xAAUEQEAAAAAAAAAAAAAAAAAAAAQ/9oACAEDAQE/AT//xAAUEQEAAAAAAAAAAAAAAAAAAAAQ/9oACAECAQE/AT//xAAaEAEAAgMBAAAAAAAAAAAAAAABECEAAiJB/9oACAEBAAY/AkyzonVPaY//xAAbEAADAAIDAAAAAAAAAAAAAAAAAREQMUFRYf/aAAgBAQABPyFPUUHRJrHTXGL3SEP/2gAMAwEAAgADAAAAEHvf/8QAFBEBAAAAAAAAAAAAAAAAAAAAEP/aAAgBAwEBPxA//8QAFBEBAAAAAAAAAAAAAAAAAAAAEP/aAAgBAgEBPxA//8QAGxABAAIDAQEAAAAAAAAAAAAAAQARMVGRIdH/2gAIAQEAAT8QtzDR6DKRa6ZWAA5FitYrY/Ii8HJ//9k="},"images":{"fallback":{"src":"/blog/static/284693fca7dee4d7dd6aab36167cca55/39611/demo_1.jpg","srcSet":"/blog/static/284693fca7dee4d7dd6aab36167cca55/0f61a/demo_1.jpg 192w,\n/blog/static/284693fca7dee4d7dd6aab36167cca55/c83fc/demo_1.jpg 384w,\n/blog/static/284693fca7dee4d7dd6aab36167cca55/39611/demo_1.jpg 768w,\n/blog/static/284693fca7dee4d7dd6aab36167cca55/83638/demo_1.jpg 1536w","sizes":"(min-width: 768px) 768px, 100vw"},"sources":[]},"width":768,"height":512}}},"description":"This is a post page with only simple paragraphs"}},{"id":"ef2ad2cf-c75e-5a3b-824f-5d056af48441","timeToRead":3,"fields":{"slug":"/konfigurasjonskontroll-for-okt-sikkerhet"},"frontmatter":{"title":"Konfigurasjonskontroll for økt sikkerhet i skyløsninger","date":"October 12th, 2022","categories":["cyber security","sentinel"],"hero":{"normal":{"gatsbyImageData":{"layout":"constrained","placeholder":{"fallback":"data:image/png;base64,iVBORw0KGgoAAAANSUhEUgAAABQAAAALCAIAAADwazoUAAAACXBIWXMAAAsTAAALEwEAmpwYAAABn0lEQVQoz3VRyW4UMRDtzyAINLXY5aXd+zLJpDOdZKRMWAJROCAuuSDBB3CAAxK3/EkO3DnweciegYhDnkqlssqv6j07Y63F58bnedPWw3I8mTc377cfbs+v3n7++v3jl2/r19fTq+t+mqvlytWd9oGUACIgZkTEWmtjXR5CN5TdOKzPVxcv1m/e3f38/eP+1+Xtp2He9CenoT+0ZaN8YLGIBEQZKa2MFZfbvKhXU3U4hW4Mbd+fbZv1pjiau8sbX9ahHfJ+aYqKjUNSgARIGQCQ0izCWsR6X9XV0dQez0rLs4Mnz58eAHHoR183EgplHIklpZAoyt6pJ6Wi+VD5ug1NV3ajEgMAaQP6snJFJaFkbZH2zCgbIpUxWmdlvTLWt0N/ccViFosFAAJAMW9dOyrrWCyxRub9g6XpcVICIZJfTsXxKeyBC0C32oSzlwCEzDGIdr0sERCJUuJ0H4FV3IlxLZgCWMjme8FJS8qYITOxIi0sRhuHyWSK+BmJHGKdhu7d7oYCZH/lLVLAwzF9RizFwX/Af1X2WONhAws8gj8Y0Wos1fzHlAAAAABJRU5ErkJggg=="},"images":{"fallback":{"src":"/blog/static/ca386487c8a4c1eb2fcfb9ef20fd5707/b9b26/splash.png","srcSet":"/blog/static/ca386487c8a4c1eb2fcfb9ef20fd5707/377a5/splash.png 192w,\n/blog/static/ca386487c8a4c1eb2fcfb9ef20fd5707/3389a/splash.png 384w,\n/blog/static/ca386487c8a4c1eb2fcfb9ef20fd5707/b9b26/splash.png 768w","sizes":"(min-width: 768px) 768px, 100vw"},"sources":[]},"width":768,"height":423}}},"description":"Vi lever i en usikker tid. Det er krig i Europa. Nasjonal Sikkerhetsmyndighet (NSM) ber norske virksomheter være ekstra årvåkne. Og Uber ble utsatt for datainnbrudd."}}]}},"pageContext":{"limit":6,"skip":6,"currentPage":2}},"staticQueryHashes":["176088207"]}