{"componentChunkName":"component---node-modules-pitayan-gatsby-theme-pitayan-src-templates-all-posts-index-tsx","path":"/posts/4/","result":{"data":{"allMdx":{"totalCount":45,"pageInfo":{"currentPage":4,"hasNextPage":false,"hasPreviousPage":true,"pageCount":3},"nodes":[]}},"pageContext":{"limit":15,"skip":45,"currentPage":4}},"staticQueryHashes":["176088207"],"slicesMap":{}}